<?xml version="1.0" encoding="UTF-8" standalone="no"?>
<svg
   xmlns:dc="http://purl.org/dc/elements/1.1/"
   xmlns:cc="http://creativecommons.org/ns#"
   xmlns:rdf="http://www.w3.org/1999/02/22-rdf-syntax-ns#"
   xmlns:svg="http://www.w3.org/2000/svg"
   xmlns="http://www.w3.org/2000/svg"
   viewBox="0 0 544.69836 667.51825"
   height="667.51825"
   width="544.69836"
   xml:space="preserve"
   id="svg2"
   version="1.1"><metadata
     id="metadata8"><rdf:RDF><cc:Work
         rdf:about=""><dc:format>image/svg+xml</dc:format><dc:type
           rdf:resource="http://purl.org/dc/dcmitype/StillImage" /></cc:Work></rdf:RDF></metadata><defs
     id="defs6" /><g
     transform="matrix(1.3333333,0,0,-1.3333333,0,667.51827)"
     id="g10"><g
       transform="translate(90.85006,248.1488)"
       id="g12"><g
         id="g14"><path
           id="path16"
           style="fill:#ff0000;fill-opacity:1;fill-rule:nonzero;stroke:none"
           d="m 70.866135,0 c 0,18.7957 -7.467682,36.819336 -20.757248,50.108887 C 36.819336,63.398453 18.7957,70.866135 0,70.866135 c -18.7957,0 -36.819336,-7.467682 -50.108887,-20.757248 C -63.398453,36.819336 -70.866135,18.7957 -70.866135,0 c 0,-18.7957 7.467682,-36.819336 20.757248,-50.108887 C -36.819336,-63.398453 -18.7957,-70.866135 0,-70.866135 c 18.7957,0 36.819336,7.467682 50.108887,20.757248 C 63.398453,-36.819336 70.866135,-18.7957 70.866135,0 Z" /><g
           transform="translate(-0.11094,-0.34386)"
           id="g18"><g
             transform="matrix(313.48964,119.10477,4.298691,13.323303,0,0)"
             id="g20"><g
               transform="scale(0.020911,0.161895)"
               id="g22"><g
                 transform="translate(-90.73912,-247.80494)"
                 id="g24"><text
                   id="text28"
                   style="font-variant:normal;font-weight:normal;font-size:9.96263981px;font-family:'TeX Gyre Cursor';-inkscape-font-specification:TeXGyreCursor-Regular;writing-mode:lr-tb;fill:#0000ff;fill-opacity:1;fill-rule:nonzero;stroke:none"
                   transform="matrix(1,0,0,-1,90.73912,247.96434)"><tspan
                     id="tspan26"
                     y="0"
                     x="0 5.9775839 11.955168 17.932753 23.910336 29.88792 35.865505 41.843086">Plancton</tspan></text>
<g
                   transform="matrix(47.820672,0,0,6.176834,90.73912,247.80494)"
                   id="g30" /></g></g></g><g
             transform="translate(0.11094,0.34386)"
             id="g32"><path
               id="path34"
               style="fill:none;stroke:#0000ff;stroke-width:1.49440002;stroke-linecap:round;stroke-linejoin:round;stroke-miterlimit:10;stroke-dasharray:none;stroke-opacity:1"
               d="m 44.58313,108.90045 v 0" /><path
               id="path36"
               style="fill:none;stroke:#0000ff;stroke-width:1.49440002;stroke-linecap:round;stroke-linejoin:round;stroke-miterlimit:10;stroke-dasharray:none;stroke-opacity:1"
               d="m 92.517853,-179.30908 v 0" /><path
               id="path38"
               style="fill:none;stroke:#0000ff;stroke-width:1.49440002;stroke-linecap:round;stroke-linejoin:round;stroke-miterlimit:10;stroke-dasharray:none;stroke-opacity:1"
               d="m 63.813019,-32.473755 v 0" /><path
               id="path40"
               style="fill:none;stroke:#0000ff;stroke-width:1.49440002;stroke-linecap:round;stroke-linejoin:round;stroke-miterlimit:10;stroke-dasharray:none;stroke-opacity:1"
               d="m 14.613342,101.92413 v 0" /><path
               id="path42"
               style="fill:none;stroke:#0000ff;stroke-width:1.49440002;stroke-linecap:round;stroke-linejoin:round;stroke-miterlimit:10;stroke-dasharray:none;stroke-opacity:1"
               d="m 27.702332,-32.931519 v 0" /><path
               id="path44"
               style="fill:none;stroke:#0000ff;stroke-width:1.49440002;stroke-linecap:round;stroke-linejoin:round;stroke-miterlimit:10;stroke-dasharray:none;stroke-opacity:1"
               d="m 102.7092,80.67627 v 0" /><path
               id="path46"
               style="fill:none;stroke:#0000ff;stroke-width:1.49440002;stroke-linecap:round;stroke-linejoin:round;stroke-miterlimit:10;stroke-dasharray:none;stroke-opacity:1"
               d="m 112.16278,-35.50415 v 0" /><path
               id="path48"
               style="fill:none;stroke:#0000ff;stroke-width:1.49440002;stroke-linecap:round;stroke-linejoin:round;stroke-miterlimit:10;stroke-dasharray:none;stroke-opacity:1"
               d="m -28.866577,-178.72772 v 0" /><path
               id="path50"
               style="fill:none;stroke:#0000ff;stroke-width:1.49440002;stroke-linecap:round;stroke-linejoin:round;stroke-miterlimit:10;stroke-dasharray:none;stroke-opacity:1"
               d="m 27.443695,50.593567 v 0" /><path
               id="path52"
               style="fill:none;stroke:#0000ff;stroke-width:1.49440002;stroke-linecap:round;stroke-linejoin:round;stroke-miterlimit:10;stroke-dasharray:none;stroke-opacity:1"
               d="m 144.43283,85.211182 v 0" /><path
               id="path54"
               style="fill:none;stroke:#0000ff;stroke-width:1.49440002;stroke-linecap:round;stroke-linejoin:round;stroke-miterlimit:10;stroke-dasharray:none;stroke-opacity:1"
               d="m 43.107605,-152.6886 v 0" /><path
               id="path56"
               style="fill:none;stroke:#0000ff;stroke-width:1.49440002;stroke-linecap:round;stroke-linejoin:round;stroke-miterlimit:10;stroke-dasharray:none;stroke-opacity:1"
               d="m -16.448975,14.996338 v 0" /><path
               id="path58"
               style="fill:none;stroke:#0000ff;stroke-width:1.49440002;stroke-linecap:round;stroke-linejoin:round;stroke-miterlimit:10;stroke-dasharray:none;stroke-opacity:1"
               d="m 20.288849,-50.386047 v 0" /><path
               id="path60"
               style="fill:none;stroke:#0000ff;stroke-width:1.49440002;stroke-linecap:round;stroke-linejoin:round;stroke-miterlimit:10;stroke-dasharray:none;stroke-opacity:1"
               d="m 50.320435,5.0354004 v 0" /><path
               id="path62"
               style="fill:none;stroke:#0000ff;stroke-width:1.49440002;stroke-linecap:round;stroke-linejoin:round;stroke-miterlimit:10;stroke-dasharray:none;stroke-opacity:1"
               d="m 110.16159,-192.93823 v 0" /><path
               id="path64"
               style="fill:none;stroke:#0000ff;stroke-width:1.49440002;stroke-linecap:round;stroke-linejoin:round;stroke-miterlimit:10;stroke-dasharray:none;stroke-opacity:1"
               d="m 72.55249,34.005737 v 0" /><path
               id="path66"
               style="fill:none;stroke:#0000ff;stroke-width:1.49440002;stroke-linecap:round;stroke-linejoin:round;stroke-miterlimit:10;stroke-dasharray:none;stroke-opacity:1"
               d="m -24.052429,-86.694336 v 0" /><path
               id="path68"
               style="fill:none;stroke:#0000ff;stroke-width:1.49440002;stroke-linecap:round;stroke-linejoin:round;stroke-miterlimit:10;stroke-dasharray:none;stroke-opacity:1"
               d="m -3.0143738,100.9491 v 0" /><path
               id="path70"
               style="fill:none;stroke:#0000ff;stroke-width:1.49440002;stroke-linecap:round;stroke-linejoin:round;stroke-miterlimit:10;stroke-dasharray:none;stroke-opacity:1"
               d="m -48.342896,-55.265808 v 0" /><path
               id="path72"
               style="fill:none;stroke:#0000ff;stroke-width:1.49440002;stroke-linecap:round;stroke-linejoin:round;stroke-miterlimit:10;stroke-dasharray:none;stroke-opacity:1"
               d="m 102.55203,109.27887 v 0" /><path
               id="path74"
               style="fill:none;stroke:#0000ff;stroke-width:1.49440002;stroke-linecap:round;stroke-linejoin:round;stroke-miterlimit:10;stroke-dasharray:none;stroke-opacity:1"
               d="m -41.58783,-84.912109 v 0" /><path
               id="path76"
               style="fill:none;stroke:#0000ff;stroke-width:1.49440002;stroke-linecap:round;stroke-linejoin:round;stroke-miterlimit:10;stroke-dasharray:none;stroke-opacity:1"
               d="m -3.7879944,28.681946 v 0" /><path
               id="path78"
               style="fill:none;stroke:#0000ff;stroke-width:1.49440002;stroke-linecap:round;stroke-linejoin:round;stroke-miterlimit:10;stroke-dasharray:none;stroke-opacity:1"
               d="m -22.683716,-96.681213 v 0" /><path
               id="path80"
               style="fill:none;stroke:#0000ff;stroke-width:1.49440002;stroke-linecap:round;stroke-linejoin:round;stroke-miterlimit:10;stroke-dasharray:none;stroke-opacity:1"
               d="m 59.916687,56.956482 v 0" /><path
               id="path82"
               style="fill:none;stroke:#0000ff;stroke-width:1.49440002;stroke-linecap:round;stroke-linejoin:round;stroke-miterlimit:10;stroke-dasharray:none;stroke-opacity:1"
               d="m 11.280823,-61.474609 v 0" /><path
               id="path84"
               style="fill:none;stroke:#0000ff;stroke-width:1.49440002;stroke-linecap:round;stroke-linejoin:round;stroke-miterlimit:10;stroke-dasharray:none;stroke-opacity:1"
               d="m 25.228119,-47.203064 v 0" /><path
               id="path86"
               style="fill:none;stroke:#0000ff;stroke-width:1.49440002;stroke-linecap:round;stroke-linejoin:round;stroke-miterlimit:10;stroke-dasharray:none;stroke-opacity:1"
               d="m 99.978638,77.848816 v 0" /><path
               id="path88"
               style="fill:none;stroke:#0000ff;stroke-width:1.49440002;stroke-linecap:round;stroke-linejoin:round;stroke-miterlimit:10;stroke-dasharray:none;stroke-opacity:1"
               d="m 71.018982,-63.874817 v 0" /><path
               id="path90"
               style="fill:none;stroke:#0000ff;stroke-width:1.49440002;stroke-linecap:round;stroke-linejoin:round;stroke-miterlimit:10;stroke-dasharray:none;stroke-opacity:1"
               d="m 79.811859,-181.91376 v 0" /><path
               id="path92"
               style="fill:none;stroke:#0000ff;stroke-width:1.49440002;stroke-linecap:round;stroke-linejoin:round;stroke-miterlimit:10;stroke-dasharray:none;stroke-opacity:1"
               d="m 14.84375,54.145813 v 0" /><path
               id="path94"
               style="fill:none;stroke:#0000ff;stroke-width:1.49440002;stroke-linecap:round;stroke-linejoin:round;stroke-miterlimit:10;stroke-dasharray:none;stroke-opacity:1"
               d="m 66.871643,-189.01367 v 0" /><path
               id="path96"
               style="fill:none;stroke:#0000ff;stroke-width:1.49440002;stroke-linecap:round;stroke-linejoin:round;stroke-miterlimit:10;stroke-dasharray:none;stroke-opacity:1"
               d="m 33.332825,-195.64972 v 0" /><path
               id="path98"
               style="fill:none;stroke:#0000ff;stroke-width:1.49440002;stroke-linecap:round;stroke-linejoin:round;stroke-miterlimit:10;stroke-dasharray:none;stroke-opacity:1"
               d="m 94.551086,63.197327 v 0" /><path
               id="path100"
               style="fill:none;stroke:#0000ff;stroke-width:1.49440002;stroke-linecap:round;stroke-linejoin:round;stroke-miterlimit:10;stroke-dasharray:none;stroke-opacity:1"
               d="m 80.093384,44.218445 v 0" /><path
               id="path102"
               style="fill:none;stroke:#0000ff;stroke-width:1.49440002;stroke-linecap:round;stroke-linejoin:round;stroke-miterlimit:10;stroke-dasharray:none;stroke-opacity:1"
               d="m 130.11398,-134.68323 v 0" /><path
               id="path104"
               style="fill:none;stroke:#0000ff;stroke-width:1.49440002;stroke-linecap:round;stroke-linejoin:round;stroke-miterlimit:10;stroke-dasharray:none;stroke-opacity:1"
               d="m 67.584991,-106.33087 v 0" /><path
               id="path106"
               style="fill:none;stroke:#0000ff;stroke-width:1.49440002;stroke-linecap:round;stroke-linejoin:round;stroke-miterlimit:10;stroke-dasharray:none;stroke-opacity:1"
               d="m 130.11093,70.681763 v 0" /><path
               id="path108"
               style="fill:none;stroke:#0000ff;stroke-width:1.49440002;stroke-linecap:round;stroke-linejoin:round;stroke-miterlimit:10;stroke-dasharray:none;stroke-opacity:1"
               d="m 1.2557983,64.346313 v 0" /><path
               id="path110"
               style="fill:none;stroke:#0000ff;stroke-width:1.49440002;stroke-linecap:round;stroke-linejoin:round;stroke-miterlimit:10;stroke-dasharray:none;stroke-opacity:1"
               d="m 43.260193,-110.81238 v 0" /><path
               id="path112"
               style="fill:none;stroke:#0000ff;stroke-width:1.49440002;stroke-linecap:round;stroke-linejoin:round;stroke-miterlimit:10;stroke-dasharray:none;stroke-opacity:1"
               d="m 18.688202,-60.075378 v 0" /><path
               id="path114"
               style="fill:none;stroke:#0000ff;stroke-width:1.49440002;stroke-linecap:round;stroke-linejoin:round;stroke-miterlimit:10;stroke-dasharray:none;stroke-opacity:1"
               d="m 84.145355,-20.718384 v 0" /><path
               id="path116"
               style="fill:none;stroke:#0000ff;stroke-width:1.49440002;stroke-linecap:round;stroke-linejoin:round;stroke-miterlimit:10;stroke-dasharray:none;stroke-opacity:1"
               d="m 171.63849,-96.589661 v 0" /><path
               id="path118"
               style="fill:none;stroke:#0000ff;stroke-width:1.49440002;stroke-linecap:round;stroke-linejoin:round;stroke-miterlimit:10;stroke-dasharray:none;stroke-opacity:1"
               d="m 39.208221,-108.01544 v 0" /><path
               id="path120"
               style="fill:none;stroke:#0000ff;stroke-width:1.49440002;stroke-linecap:round;stroke-linejoin:round;stroke-miterlimit:10;stroke-dasharray:none;stroke-opacity:1"
               d="m 62.521362,-96.276855 v 0" /><path
               id="path122"
               style="fill:none;stroke:#0000ff;stroke-width:1.49440002;stroke-linecap:round;stroke-linejoin:round;stroke-miterlimit:10;stroke-dasharray:none;stroke-opacity:1"
               d="m 51.861572,-31.277466 v 0" /><path
               id="path124"
               style="fill:none;stroke:#0000ff;stroke-width:1.49440002;stroke-linecap:round;stroke-linejoin:round;stroke-miterlimit:10;stroke-dasharray:none;stroke-opacity:1"
               d="m 49.489594,-89.048767 v 0" /><path
               id="path126"
               style="fill:none;stroke:#0000ff;stroke-width:1.49440002;stroke-linecap:round;stroke-linejoin:round;stroke-miterlimit:10;stroke-dasharray:none;stroke-opacity:1"
               d="m 57.711792,-18.34259 v 0" /><path
               id="path128"
               style="fill:none;stroke:#0000ff;stroke-width:1.49440002;stroke-linecap:round;stroke-linejoin:round;stroke-miterlimit:10;stroke-dasharray:none;stroke-opacity:1"
               d="m 31.773376,155.49927 v 0" /><path
               id="path130"
               style="fill:none;stroke:#0000ff;stroke-width:1.49440002;stroke-linecap:round;stroke-linejoin:round;stroke-miterlimit:10;stroke-dasharray:none;stroke-opacity:1"
               d="m 7.4623108,-15.023804 v 0" /><path
               id="path132"
               style="fill:none;stroke:#0000ff;stroke-width:1.49440002;stroke-linecap:round;stroke-linejoin:round;stroke-miterlimit:10;stroke-dasharray:none;stroke-opacity:1"
               d="m 90.763855,106.65283 v 0" /><path
               id="path134"
               style="fill:none;stroke:#0000ff;stroke-width:1.49440002;stroke-linecap:round;stroke-linejoin:round;stroke-miterlimit:10;stroke-dasharray:none;stroke-opacity:1"
               d="m 53.437805,17.907715 v 0" /><path
               id="path136"
               style="fill:none;stroke:#0000ff;stroke-width:1.49440002;stroke-linecap:round;stroke-linejoin:round;stroke-miterlimit:10;stroke-dasharray:none;stroke-opacity:1"
               d="m 28.608704,43.113708 v 0" /><path
               id="path138"
               style="fill:none;stroke:#0000ff;stroke-width:1.49440002;stroke-linecap:round;stroke-linejoin:round;stroke-miterlimit:10;stroke-dasharray:none;stroke-opacity:1"
               d="m -35.721588,7.3043823 v 0" /><path
               id="path140"
               style="fill:none;stroke:#0000ff;stroke-width:1.49440002;stroke-linecap:round;stroke-linejoin:round;stroke-miterlimit:10;stroke-dasharray:none;stroke-opacity:1"
               d="m 90.860748,70.51239 v 0" /><path
               id="path142"
               style="fill:none;stroke:#0000ff;stroke-width:1.49440002;stroke-linecap:round;stroke-linejoin:round;stroke-miterlimit:10;stroke-dasharray:none;stroke-opacity:1"
               d="m 36.741638,98.965454 v 0" /><path
               id="path144"
               style="fill:none;stroke:#0000ff;stroke-width:1.49440002;stroke-linecap:round;stroke-linejoin:round;stroke-miterlimit:10;stroke-dasharray:none;stroke-opacity:1"
               d="m 119.52896,-63.606262 v 0" /><path
               id="path146"
               style="fill:none;stroke:#0000ff;stroke-width:1.49440002;stroke-linecap:round;stroke-linejoin:round;stroke-miterlimit:10;stroke-dasharray:none;stroke-opacity:1"
               d="m 88.045502,98.747253 v 0" /><path
               id="path148"
               style="fill:none;stroke:#0000ff;stroke-width:1.49440002;stroke-linecap:round;stroke-linejoin:round;stroke-miterlimit:10;stroke-dasharray:none;stroke-opacity:1"
               d="m 73.741913,93.202209 v 0" /><path
               id="path150"
               style="fill:none;stroke:#0000ff;stroke-width:1.49440002;stroke-linecap:round;stroke-linejoin:round;stroke-miterlimit:10;stroke-dasharray:none;stroke-opacity:1"
               d="m 82.16095,-8.9828491 v 0" /><path
               id="path152"
               style="fill:none;stroke:#0000ff;stroke-width:1.49440002;stroke-linecap:round;stroke-linejoin:round;stroke-miterlimit:10;stroke-dasharray:none;stroke-opacity:1"
               d="m 39.356232,-100.76294 v 0" /><path
               id="path154"
               style="fill:none;stroke:#0000ff;stroke-width:1.49440002;stroke-linecap:round;stroke-linejoin:round;stroke-miterlimit:10;stroke-dasharray:none;stroke-opacity:1"
               d="m 31.748962,127.8717 v 0" /><path
               id="path156"
               style="fill:none;stroke:#0000ff;stroke-width:1.49440002;stroke-linecap:round;stroke-linejoin:round;stroke-miterlimit:10;stroke-dasharray:none;stroke-opacity:1"
               d="m -0.82778931,-24.002075 v 0" /><path
               id="path158"
               style="fill:none;stroke:#0000ff;stroke-width:1.49440002;stroke-linecap:round;stroke-linejoin:round;stroke-miterlimit:10;stroke-dasharray:none;stroke-opacity:1"
               d="m 47.200012,-44.300842 v 0" /><path
               id="path160"
               style="fill:none;stroke:#0000ff;stroke-width:1.49440002;stroke-linecap:round;stroke-linejoin:round;stroke-miterlimit:10;stroke-dasharray:none;stroke-opacity:1"
               d="m 13.12561,-206.26221 v 0" /><path
               id="path162"
               style="fill:none;stroke:#0000ff;stroke-width:1.49440002;stroke-linecap:round;stroke-linejoin:round;stroke-miterlimit:10;stroke-dasharray:none;stroke-opacity:1"
               d="m 64.401245,92.993164 v 0" /><path
               id="path164"
               style="fill:none;stroke:#0000ff;stroke-width:1.49440002;stroke-linecap:round;stroke-linejoin:round;stroke-miterlimit:10;stroke-dasharray:none;stroke-opacity:1"
               d="m 32.249451,-115.54565 v 0" /><path
               id="path166"
               style="fill:none;stroke:#0000ff;stroke-width:1.49440002;stroke-linecap:round;stroke-linejoin:round;stroke-miterlimit:10;stroke-dasharray:none;stroke-opacity:1"
               d="m 84.05838,-77.384949 v 0" /><path
               id="path168"
               style="fill:none;stroke:#0000ff;stroke-width:1.49440002;stroke-linecap:round;stroke-linejoin:round;stroke-miterlimit:10;stroke-dasharray:none;stroke-opacity:1"
               d="m 25.10376,-28.965759 v 0" /><path
               id="path170"
               style="fill:none;stroke:#0000ff;stroke-width:1.49440002;stroke-linecap:round;stroke-linejoin:round;stroke-miterlimit:10;stroke-dasharray:none;stroke-opacity:1"
               d="m 106.51855,7.6034546 v 0" /><path
               id="path172"
               style="fill:none;stroke:#0000ff;stroke-width:1.49440002;stroke-linecap:round;stroke-linejoin:round;stroke-miterlimit:10;stroke-dasharray:none;stroke-opacity:1"
               d="m 38.205719,-61.579895 v 0" /><path
               id="path174"
               style="fill:none;stroke:#0000ff;stroke-width:1.49440002;stroke-linecap:round;stroke-linejoin:round;stroke-miterlimit:10;stroke-dasharray:none;stroke-opacity:1"
               d="m -8.6219788,46.464539 v 0" /><path
               id="path176"
               style="fill:none;stroke:#0000ff;stroke-width:1.49440002;stroke-linecap:round;stroke-linejoin:round;stroke-miterlimit:10;stroke-dasharray:none;stroke-opacity:1"
               d="m 48.802948,-175.93536 v 0" /><path
               id="path178"
               style="fill:none;stroke:#0000ff;stroke-width:1.49440002;stroke-linecap:round;stroke-linejoin:round;stroke-miterlimit:10;stroke-dasharray:none;stroke-opacity:1"
               d="m 8.7120056,-23.262024 v 0" /><path
               id="path180"
               style="fill:none;stroke:#0000ff;stroke-width:1.49440002;stroke-linecap:round;stroke-linejoin:round;stroke-miterlimit:10;stroke-dasharray:none;stroke-opacity:1"
               d="m 85.247803,178.67432 v 0" /><path
               id="path182"
               style="fill:none;stroke:#0000ff;stroke-width:1.49440002;stroke-linecap:round;stroke-linejoin:round;stroke-miterlimit:10;stroke-dasharray:none;stroke-opacity:1"
               d="m 54.907227,15.914917 v 0" /><path
               id="path184"
               style="fill:none;stroke:#0000ff;stroke-width:1.49440002;stroke-linecap:round;stroke-linejoin:round;stroke-miterlimit:10;stroke-dasharray:none;stroke-opacity:1"
               d="m 88.505554,95.133972 v 0" /><path
               id="path186"
               style="fill:none;stroke:#0000ff;stroke-width:1.49440002;stroke-linecap:round;stroke-linejoin:round;stroke-miterlimit:10;stroke-dasharray:none;stroke-opacity:1"
               d="m -8.1771851,-89.291382 v 0" /><path
               id="path188"
               style="fill:none;stroke:#0000ff;stroke-width:1.49440002;stroke-linecap:round;stroke-linejoin:round;stroke-miterlimit:10;stroke-dasharray:none;stroke-opacity:1"
               d="m 21.351624,-69.140625 v 0" /><path
               id="path190"
               style="fill:none;stroke:#0000ff;stroke-width:1.49440002;stroke-linecap:round;stroke-linejoin:round;stroke-miterlimit:10;stroke-dasharray:none;stroke-opacity:1"
               d="m 18.06488,208.45947 v 0" /><path
               id="path192"
               style="fill:none;stroke:#0000ff;stroke-width:1.49440002;stroke-linecap:round;stroke-linejoin:round;stroke-miterlimit:10;stroke-dasharray:none;stroke-opacity:1"
               d="m 34.554291,32.659912 v 0" /><path
               id="path194"
               style="fill:none;stroke:#0000ff;stroke-width:1.49440002;stroke-linecap:round;stroke-linejoin:round;stroke-miterlimit:10;stroke-dasharray:none;stroke-opacity:1"
               d="m 72.02301,127.17743 v 0" /><path
               id="path196"
               style="fill:none;stroke:#0000ff;stroke-width:1.49440002;stroke-linecap:round;stroke-linejoin:round;stroke-miterlimit:10;stroke-dasharray:none;stroke-opacity:1"
               d="m 113.01193,-225.45929 v 0" /><path
               id="path198"
               style="fill:none;stroke:#0000ff;stroke-width:1.49440002;stroke-linecap:round;stroke-linejoin:round;stroke-miterlimit:10;stroke-dasharray:none;stroke-opacity:1"
               d="m -16.236877,21.286011 v 0" /><path
               id="path200"
               style="fill:none;stroke:#0000ff;stroke-width:1.49440002;stroke-linecap:round;stroke-linejoin:round;stroke-miterlimit:10;stroke-dasharray:none;stroke-opacity:1"
               d="m -27.090454,-108.74176 v 0" /><path
               id="path202"
               style="fill:none;stroke:#0000ff;stroke-width:1.49440002;stroke-linecap:round;stroke-linejoin:round;stroke-miterlimit:10;stroke-dasharray:none;stroke-opacity:1"
               d="m -24.044037,41.586304 v 0" /><path
               id="path204"
               style="fill:none;stroke:#0000ff;stroke-width:1.49440002;stroke-linecap:round;stroke-linejoin:round;stroke-miterlimit:10;stroke-dasharray:none;stroke-opacity:1"
               d="m 54.06189,13.78479 v 0" /><path
               id="path206"
               style="fill:none;stroke:#0000ff;stroke-width:1.49440002;stroke-linecap:round;stroke-linejoin:round;stroke-miterlimit:10;stroke-dasharray:none;stroke-opacity:1"
               d="m -14.900208,-119.12842 v 0" /><path
               id="path208"
               style="fill:none;stroke:#0000ff;stroke-width:1.49440002;stroke-linecap:round;stroke-linejoin:round;stroke-miterlimit:10;stroke-dasharray:none;stroke-opacity:1"
               d="m 38.738251,-73.99292 v 0" /><path
               id="path210"
               style="fill:none;stroke:#0000ff;stroke-width:1.49440002;stroke-linecap:round;stroke-linejoin:round;stroke-miterlimit:10;stroke-dasharray:none;stroke-opacity:1"
               d="m 104.41666,54.879761 v 0" /><path
               id="path212"
               style="fill:none;stroke:#0000ff;stroke-width:1.49440002;stroke-linecap:round;stroke-linejoin:round;stroke-miterlimit:10;stroke-dasharray:none;stroke-opacity:1"
               d="m 23.427582,72.195435 v 0" /><path
               id="path214"
               style="fill:none;stroke:#0000ff;stroke-width:1.49440002;stroke-linecap:round;stroke-linejoin:round;stroke-miterlimit:10;stroke-dasharray:none;stroke-opacity:1"
               d="m -7.2723389,-31.097412 v 0" /><path
               id="path216"
               style="fill:none;stroke:#0000ff;stroke-width:1.49440002;stroke-linecap:round;stroke-linejoin:round;stroke-miterlimit:10;stroke-dasharray:none;stroke-opacity:1"
               d="m 71.713257,-18.302917 v 0" /><path
               id="path218"
               style="fill:none;stroke:#0000ff;stroke-width:1.49440002;stroke-linecap:round;stroke-linejoin:round;stroke-miterlimit:10;stroke-dasharray:none;stroke-opacity:1"
               d="m 75.093079,-11.048889 v 0" /><path
               id="path220"
               style="fill:none;stroke:#0000ff;stroke-width:1.49440002;stroke-linecap:round;stroke-linejoin:round;stroke-miterlimit:10;stroke-dasharray:none;stroke-opacity:1"
               d="m -7.1838379,-13.609314 v 0" /><path
               id="path222"
               style="fill:none;stroke:#0000ff;stroke-width:1.49440002;stroke-linecap:round;stroke-linejoin:round;stroke-miterlimit:10;stroke-dasharray:none;stroke-opacity:1"
               d="m 135.63309,-21.157837 v 0" /><path
               id="path224"
               style="fill:none;stroke:#0000ff;stroke-width:1.49440002;stroke-linecap:round;stroke-linejoin:round;stroke-miterlimit:10;stroke-dasharray:none;stroke-opacity:1"
               d="m 132.99026,215.17029 v 0" /><path
               id="path226"
               style="fill:none;stroke:#0000ff;stroke-width:1.49440002;stroke-linecap:round;stroke-linejoin:round;stroke-miterlimit:10;stroke-dasharray:none;stroke-opacity:1"
               d="m 81.221771,125.6897 v 0" /><path
               id="path228"
               style="fill:none;stroke:#0000ff;stroke-width:1.49440002;stroke-linecap:round;stroke-linejoin:round;stroke-miterlimit:10;stroke-dasharray:none;stroke-opacity:1"
               d="m 77.807617,-1.0726929 v 0" /><path
               id="path230"
               style="fill:none;stroke:#0000ff;stroke-width:1.49440002;stroke-linecap:round;stroke-linejoin:round;stroke-miterlimit:10;stroke-dasharray:none;stroke-opacity:1"
               d="m 59.986115,-14.318848 v 0" /><path
               id="path232"
               style="fill:none;stroke:#0000ff;stroke-width:1.49440002;stroke-linecap:round;stroke-linejoin:round;stroke-miterlimit:10;stroke-dasharray:none;stroke-opacity:1"
               d="m 26.473236,61.048889 v 0" /><path
               id="path234"
               style="fill:none;stroke:#0000ff;stroke-width:1.49440002;stroke-linecap:round;stroke-linejoin:round;stroke-miterlimit:10;stroke-dasharray:none;stroke-opacity:1"
               d="m 6.0691833,32.533264 v 0" /><path
               id="path236"
               style="fill:none;stroke:#0000ff;stroke-width:1.49440002;stroke-linecap:round;stroke-linejoin:round;stroke-miterlimit:10;stroke-dasharray:none;stroke-opacity:1"
               d="m 39.634705,-75.917053 v 0" /><path
               id="path238"
               style="fill:none;stroke:#0000ff;stroke-width:1.49440002;stroke-linecap:round;stroke-linejoin:round;stroke-miterlimit:10;stroke-dasharray:none;stroke-opacity:1"
               d="m 75.374603,-45.423889 v 0" /><path
               id="path240"
               style="fill:none;stroke:#0000ff;stroke-width:1.49440002;stroke-linecap:round;stroke-linejoin:round;stroke-miterlimit:10;stroke-dasharray:none;stroke-opacity:1"
               d="m 64.600372,45.314026 v 0" /><path
               id="path242"
               style="fill:none;stroke:#0000ff;stroke-width:1.49440002;stroke-linecap:round;stroke-linejoin:round;stroke-miterlimit:10;stroke-dasharray:none;stroke-opacity:1"
               d="m 119.41681,-12.641907 v 0" /><path
               id="path244"
               style="fill:none;stroke:#0000ff;stroke-width:1.49440002;stroke-linecap:round;stroke-linejoin:round;stroke-miterlimit:10;stroke-dasharray:none;stroke-opacity:1"
               d="m 129.39148,-10.26001 v 0" /><path
               id="path246"
               style="fill:none;stroke:#0000ff;stroke-width:1.49440002;stroke-linecap:round;stroke-linejoin:round;stroke-miterlimit:10;stroke-dasharray:none;stroke-opacity:1"
               d="m 129.86984,-78.045654 v 0" /><path
               id="path248"
               style="fill:none;stroke:#0000ff;stroke-width:1.49440002;stroke-linecap:round;stroke-linejoin:round;stroke-miterlimit:10;stroke-dasharray:none;stroke-opacity:1"
               d="m 82.875061,-41.563416 v 0" /><path
               id="path250"
               style="fill:none;stroke:#0000ff;stroke-width:1.49440002;stroke-linecap:round;stroke-linejoin:round;stroke-miterlimit:10;stroke-dasharray:none;stroke-opacity:1"
               d="m 86.021423,-6.5750122 v 0" /><path
               id="path252"
               style="fill:none;stroke:#0000ff;stroke-width:1.49440002;stroke-linecap:round;stroke-linejoin:round;stroke-miterlimit:10;stroke-dasharray:none;stroke-opacity:1"
               d="m -15.202332,-74.555969 v 0" /><path
               id="path254"
               style="fill:none;stroke:#0000ff;stroke-width:1.49440002;stroke-linecap:round;stroke-linejoin:round;stroke-miterlimit:10;stroke-dasharray:none;stroke-opacity:1"
               d="m 48.99292,-10.734558 v 0" /><path
               id="path256"
               style="fill:none;stroke:#0000ff;stroke-width:1.49440002;stroke-linecap:round;stroke-linejoin:round;stroke-miterlimit:10;stroke-dasharray:none;stroke-opacity:1"
               d="m 12.3909,251.74561 v 0" /><path
               id="path258"
               style="fill:none;stroke:#0000ff;stroke-width:1.49440002;stroke-linecap:round;stroke-linejoin:round;stroke-miterlimit:10;stroke-dasharray:none;stroke-opacity:1"
               d="m 116.7572,25.602722 v 0" /><path
               id="path260"
               style="fill:none;stroke:#0000ff;stroke-width:1.49440002;stroke-linecap:round;stroke-linejoin:round;stroke-miterlimit:10;stroke-dasharray:none;stroke-opacity:1"
               d="m -65.744781,135.09827 v 0" /><path
               id="path262"
               style="fill:none;stroke:#0000ff;stroke-width:1.49440002;stroke-linecap:round;stroke-linejoin:round;stroke-miterlimit:10;stroke-dasharray:none;stroke-opacity:1"
               d="m 11.145782,-120.77637 v 0" /><path
               id="path264"
               style="fill:none;stroke:#0000ff;stroke-width:1.49440002;stroke-linecap:round;stroke-linejoin:round;stroke-miterlimit:10;stroke-dasharray:none;stroke-opacity:1"
               d="m 29.934692,164.38751 v 0" /><path
               id="path266"
               style="fill:none;stroke:#0000ff;stroke-width:1.49440002;stroke-linecap:round;stroke-linejoin:round;stroke-miterlimit:10;stroke-dasharray:none;stroke-opacity:1"
               d="m -45.59021,98.628235 v 0" /><path
               id="path268"
               style="fill:none;stroke:#0000ff;stroke-width:1.49440002;stroke-linecap:round;stroke-linejoin:round;stroke-miterlimit:10;stroke-dasharray:none;stroke-opacity:1"
               d="m 97.376251,-71.855164 v 0" /><path
               id="path270"
               style="fill:none;stroke:#0000ff;stroke-width:1.49440002;stroke-linecap:round;stroke-linejoin:round;stroke-miterlimit:10;stroke-dasharray:none;stroke-opacity:1"
               d="m 65.370941,-22.900391 v 0" /><path
               id="path272"
               style="fill:none;stroke:#0000ff;stroke-width:1.49440002;stroke-linecap:round;stroke-linejoin:round;stroke-miterlimit:10;stroke-dasharray:none;stroke-opacity:1"
               d="m -90.103912,-33.1604 v 0" /><path
               id="path274"
               style="fill:none;stroke:#0000ff;stroke-width:1.49440002;stroke-linecap:round;stroke-linejoin:round;stroke-miterlimit:10;stroke-dasharray:none;stroke-opacity:1"
               d="m 81.044769,88.549805 v 0" /><path
               id="path276"
               style="fill:none;stroke:#0000ff;stroke-width:1.49440002;stroke-linecap:round;stroke-linejoin:round;stroke-miterlimit:10;stroke-dasharray:none;stroke-opacity:1"
               d="m 30.26886,147.42737 v 0" /><path
               id="path278"
               style="fill:none;stroke:#0000ff;stroke-width:1.49440002;stroke-linecap:round;stroke-linejoin:round;stroke-miterlimit:10;stroke-dasharray:none;stroke-opacity:1"
               d="m 115.88135,148.08502 v 0" /><path
               id="path280"
               style="fill:none;stroke:#0000ff;stroke-width:1.49440002;stroke-linecap:round;stroke-linejoin:round;stroke-miterlimit:10;stroke-dasharray:none;stroke-opacity:1"
               d="m 80.945587,-11.708069 v 0" /><path
               id="path282"
               style="fill:none;stroke:#0000ff;stroke-width:1.49440002;stroke-linecap:round;stroke-linejoin:round;stroke-miterlimit:10;stroke-dasharray:none;stroke-opacity:1"
               d="m 72.058105,128.19824 v 0" /><path
               id="path284"
               style="fill:none;stroke:#0000ff;stroke-width:1.49440002;stroke-linecap:round;stroke-linejoin:round;stroke-miterlimit:10;stroke-dasharray:none;stroke-opacity:1"
               d="m 152.11563,22.042847 v 0" /><path
               id="path286"
               style="fill:none;stroke:#0000ff;stroke-width:1.49440002;stroke-linecap:round;stroke-linejoin:round;stroke-miterlimit:10;stroke-dasharray:none;stroke-opacity:1"
               d="m 85.65979,1.5045166 v 0" /><path
               id="path288"
               style="fill:none;stroke:#0000ff;stroke-width:1.49440002;stroke-linecap:round;stroke-linejoin:round;stroke-miterlimit:10;stroke-dasharray:none;stroke-opacity:1"
               d="m 99.594879,-104.98505 v 0" /><path
               id="path290"
               style="fill:none;stroke:#0000ff;stroke-width:1.49440002;stroke-linecap:round;stroke-linejoin:round;stroke-miterlimit:10;stroke-dasharray:none;stroke-opacity:1"
               d="m 35.787201,55.844116 v 0" /><path
               id="path292"
               style="fill:none;stroke:#0000ff;stroke-width:1.49440002;stroke-linecap:round;stroke-linejoin:round;stroke-miterlimit:10;stroke-dasharray:none;stroke-opacity:1"
               d="m 133.40225,-227.13165 v 0" /><path
               id="path294"
               style="fill:none;stroke:#0000ff;stroke-width:1.49440002;stroke-linecap:round;stroke-linejoin:round;stroke-miterlimit:10;stroke-dasharray:none;stroke-opacity:1"
               d="m 49.086761,76.40686 v 0" /><path
               id="path296"
               style="fill:none;stroke:#0000ff;stroke-width:1.49440002;stroke-linecap:round;stroke-linejoin:round;stroke-miterlimit:10;stroke-dasharray:none;stroke-opacity:1"
               d="m 62.517548,-199.20654 v 0" /><path
               id="path298"
               style="fill:none;stroke:#0000ff;stroke-width:1.49440002;stroke-linecap:round;stroke-linejoin:round;stroke-miterlimit:10;stroke-dasharray:none;stroke-opacity:1"
               d="m -20.329285,-96.403503 v 0" /><path
               id="path300"
               style="fill:none;stroke:#0000ff;stroke-width:1.49440002;stroke-linecap:round;stroke-linejoin:round;stroke-miterlimit:10;stroke-dasharray:none;stroke-opacity:1"
               d="m 57.134247,-76.382446 v 0" /><path
               id="path302"
               style="fill:none;stroke:#0000ff;stroke-width:1.49440002;stroke-linecap:round;stroke-linejoin:round;stroke-miterlimit:10;stroke-dasharray:none;stroke-opacity:1"
               d="m -26.100159,39.115906 v 0" /><path
               id="path304"
               style="fill:none;stroke:#0000ff;stroke-width:1.49440002;stroke-linecap:round;stroke-linejoin:round;stroke-miterlimit:10;stroke-dasharray:none;stroke-opacity:1"
               d="m 47.219849,195.11414 v 0" /><path
               id="path306"
               style="fill:none;stroke:#0000ff;stroke-width:1.49440002;stroke-linecap:round;stroke-linejoin:round;stroke-miterlimit:10;stroke-dasharray:none;stroke-opacity:1"
               d="m -24.280548,57.011414 v 0" /><path
               id="path308"
               style="fill:none;stroke:#0000ff;stroke-width:1.49440002;stroke-linecap:round;stroke-linejoin:round;stroke-miterlimit:10;stroke-dasharray:none;stroke-opacity:1"
               d="m -1.8791199,59.93042 v 0" /><path
               id="path310"
               style="fill:none;stroke:#0000ff;stroke-width:1.49440002;stroke-linecap:round;stroke-linejoin:round;stroke-miterlimit:10;stroke-dasharray:none;stroke-opacity:1"
               d="m 71.350861,-74.061584 v 0" /><path
               id="path312"
               style="fill:none;stroke:#0000ff;stroke-width:1.49440002;stroke-linecap:round;stroke-linejoin:round;stroke-miterlimit:10;stroke-dasharray:none;stroke-opacity:1"
               d="m 10.609436,-147.23053 v 0" /><path
               id="path314"
               style="fill:none;stroke:#0000ff;stroke-width:1.49440002;stroke-linecap:round;stroke-linejoin:round;stroke-miterlimit:10;stroke-dasharray:none;stroke-opacity:1"
               d="m 47.167969,242.70935 v 0" /><path
               id="path316"
               style="fill:none;stroke:#0000ff;stroke-width:1.49440002;stroke-linecap:round;stroke-linejoin:round;stroke-miterlimit:10;stroke-dasharray:none;stroke-opacity:1"
               d="m 15.214539,45.658875 v 0" /><path
               id="path318"
               style="fill:none;stroke:#0000ff;stroke-width:1.49440002;stroke-linecap:round;stroke-linejoin:round;stroke-miterlimit:10;stroke-dasharray:none;stroke-opacity:1"
               d="m 17.202759,20.71228 v 0" /><path
               id="path320"
               style="fill:none;stroke:#0000ff;stroke-width:1.49440002;stroke-linecap:round;stroke-linejoin:round;stroke-miterlimit:10;stroke-dasharray:none;stroke-opacity:1"
               d="m 148.60916,13.792419 v 0" /><path
               id="path322"
               style="fill:none;stroke:#0000ff;stroke-width:1.49440002;stroke-linecap:round;stroke-linejoin:round;stroke-miterlimit:10;stroke-dasharray:none;stroke-opacity:1"
               d="m 17.755127,74.523926 v 0" /><path
               id="path324"
               style="fill:none;stroke:#0000ff;stroke-width:1.49440002;stroke-linecap:round;stroke-linejoin:round;stroke-miterlimit:10;stroke-dasharray:none;stroke-opacity:1"
               d="m 44.491577,90.188599 v 0" /><path
               id="path326"
               style="fill:none;stroke:#0000ff;stroke-width:1.49440002;stroke-linecap:round;stroke-linejoin:round;stroke-miterlimit:10;stroke-dasharray:none;stroke-opacity:1"
               d="m 133.88062,-95.275879 v 0" /><path
               id="path328"
               style="fill:none;stroke:#0000ff;stroke-width:1.49440002;stroke-linecap:round;stroke-linejoin:round;stroke-miterlimit:10;stroke-dasharray:none;stroke-opacity:1"
               d="m -86.642456,-109.86176 v 0" /><path
               id="path330"
               style="fill:none;stroke:#0000ff;stroke-width:1.49440002;stroke-linecap:round;stroke-linejoin:round;stroke-miterlimit:10;stroke-dasharray:none;stroke-opacity:1"
               d="m 83.073425,97.633362 v 0" /><path
               id="path332"
               style="fill:none;stroke:#0000ff;stroke-width:1.49440002;stroke-linecap:round;stroke-linejoin:round;stroke-miterlimit:10;stroke-dasharray:none;stroke-opacity:1"
               d="m 24.038696,141.49323 v 0" /><path
               id="path334"
               style="fill:none;stroke:#0000ff;stroke-width:1.49440002;stroke-linecap:round;stroke-linejoin:round;stroke-miterlimit:10;stroke-dasharray:none;stroke-opacity:1"
               d="m 78.55072,85.10437 v 0" /><path
               id="path336"
               style="fill:none;stroke:#0000ff;stroke-width:1.49440002;stroke-linecap:round;stroke-linejoin:round;stroke-miterlimit:10;stroke-dasharray:none;stroke-opacity:1"
               d="m 67.526245,197.51129 v 0" /><path
               id="path338"
               style="fill:none;stroke:#0000ff;stroke-width:1.49440002;stroke-linecap:round;stroke-linejoin:round;stroke-miterlimit:10;stroke-dasharray:none;stroke-opacity:1"
               d="m 36.253357,-0.85601807 v 0" /><path
               id="path340"
               style="fill:none;stroke:#0000ff;stroke-width:1.49440002;stroke-linecap:round;stroke-linejoin:round;stroke-miterlimit:10;stroke-dasharray:none;stroke-opacity:1"
               d="m 74.175262,36.961365 v 0" /><path
               id="path342"
               style="fill:none;stroke:#0000ff;stroke-width:1.49440002;stroke-linecap:round;stroke-linejoin:round;stroke-miterlimit:10;stroke-dasharray:none;stroke-opacity:1"
               d="m 60.237885,-68.782043 v 0" /><path
               id="path344"
               style="fill:none;stroke:#0000ff;stroke-width:1.49440002;stroke-linecap:round;stroke-linejoin:round;stroke-miterlimit:10;stroke-dasharray:none;stroke-opacity:1"
               d="m 84.80835,66.619873 v 0" /><path
               id="path346"
               style="fill:none;stroke:#0000ff;stroke-width:1.49440002;stroke-linecap:round;stroke-linejoin:round;stroke-miterlimit:10;stroke-dasharray:none;stroke-opacity:1"
               d="m 64.808655,36.779785 v 0" /><path
               id="path348"
               style="fill:none;stroke:#0000ff;stroke-width:1.49440002;stroke-linecap:round;stroke-linejoin:round;stroke-miterlimit:10;stroke-dasharray:none;stroke-opacity:1"
               d="m 94.932556,31.356812 v 0" /><path
               id="path350"
               style="fill:none;stroke:#0000ff;stroke-width:1.49440002;stroke-linecap:round;stroke-linejoin:round;stroke-miterlimit:10;stroke-dasharray:none;stroke-opacity:1"
               d="m 31.201172,-79.214478 v 0" /><path
               id="path352"
               style="fill:none;stroke:#0000ff;stroke-width:1.49440002;stroke-linecap:round;stroke-linejoin:round;stroke-miterlimit:10;stroke-dasharray:none;stroke-opacity:1"
               d="m 33.181,-7.4264526 v 0" /><path
               id="path354"
               style="fill:none;stroke:#0000ff;stroke-width:1.49440002;stroke-linecap:round;stroke-linejoin:round;stroke-miterlimit:10;stroke-dasharray:none;stroke-opacity:1"
               d="m 90.93399,59.257507 v 0" /><path
               id="path356"
               style="fill:none;stroke:#0000ff;stroke-width:1.49440002;stroke-linecap:round;stroke-linejoin:round;stroke-miterlimit:10;stroke-dasharray:none;stroke-opacity:1"
               d="m 191.7244,20.779419 v 0" /><path
               id="path358"
               style="fill:none;stroke:#0000ff;stroke-width:1.49440002;stroke-linecap:round;stroke-linejoin:round;stroke-miterlimit:10;stroke-dasharray:none;stroke-opacity:1"
               d="m -45.639038,69.841003 v 0" /><path
               id="path360"
               style="fill:none;stroke:#0000ff;stroke-width:1.49440002;stroke-linecap:round;stroke-linejoin:round;stroke-miterlimit:10;stroke-dasharray:none;stroke-opacity:1"
               d="m -14.134216,-42.750549 v 0" /><path
               id="path362"
               style="fill:none;stroke:#0000ff;stroke-width:1.49440002;stroke-linecap:round;stroke-linejoin:round;stroke-miterlimit:10;stroke-dasharray:none;stroke-opacity:1"
               d="m 96.373749,-146.79565 v 0" /><path
               id="path364"
               style="fill:none;stroke:#0000ff;stroke-width:1.49440002;stroke-linecap:round;stroke-linejoin:round;stroke-miterlimit:10;stroke-dasharray:none;stroke-opacity:1"
               d="m 96.834564,-48.069763 v 0" /><path
               id="path366"
               style="fill:none;stroke:#0000ff;stroke-width:1.49440002;stroke-linecap:round;stroke-linejoin:round;stroke-miterlimit:10;stroke-dasharray:none;stroke-opacity:1"
               d="m -58.187866,-58.68988 v 0" /><path
               id="path368"
               style="fill:none;stroke:#0000ff;stroke-width:1.49440002;stroke-linecap:round;stroke-linejoin:round;stroke-miterlimit:10;stroke-dasharray:none;stroke-opacity:1"
               d="m 98.764038,16.021729 v 0" /><path
               id="path370"
               style="fill:none;stroke:#0000ff;stroke-width:1.49440002;stroke-linecap:round;stroke-linejoin:round;stroke-miterlimit:10;stroke-dasharray:none;stroke-opacity:1"
               d="m 33.719635,-39.016724 v 0" /><path
               id="path372"
               style="fill:none;stroke:#0000ff;stroke-width:1.49440002;stroke-linecap:round;stroke-linejoin:round;stroke-miterlimit:10;stroke-dasharray:none;stroke-opacity:1"
               d="m 99.945831,-34.423828 v 0" /><path
               id="path374"
               style="fill:none;stroke:#0000ff;stroke-width:1.49440002;stroke-linecap:round;stroke-linejoin:round;stroke-miterlimit:10;stroke-dasharray:none;stroke-opacity:1"
               d="m 131.64597,-245.09277 v 0" /><path
               id="path376"
               style="fill:none;stroke:#0000ff;stroke-width:1.49440002;stroke-linecap:round;stroke-linejoin:round;stroke-miterlimit:10;stroke-dasharray:none;stroke-opacity:1"
               d="m -12.554169,-10.017395 v 0" /><path
               id="path378"
               style="fill:none;stroke:#0000ff;stroke-width:1.49440002;stroke-linecap:round;stroke-linejoin:round;stroke-miterlimit:10;stroke-dasharray:none;stroke-opacity:1"
               d="m 58.685303,84.2453 v 0" /><path
               id="path380"
               style="fill:none;stroke:#0000ff;stroke-width:1.49440002;stroke-linecap:round;stroke-linejoin:round;stroke-miterlimit:10;stroke-dasharray:none;stroke-opacity:1"
               d="m 65.428925,-62.55188 v 0" /><path
               id="path382"
               style="fill:none;stroke:#0000ff;stroke-width:1.49440002;stroke-linecap:round;stroke-linejoin:round;stroke-miterlimit:10;stroke-dasharray:none;stroke-opacity:1"
               d="m 80.154419,42.027283 v 0" /><path
               id="path384"
               style="fill:none;stroke:#0000ff;stroke-width:1.49440002;stroke-linecap:round;stroke-linejoin:round;stroke-miterlimit:10;stroke-dasharray:none;stroke-opacity:1"
               d="m 64.16626,-78.817749 v 0" /><path
               id="path386"
               style="fill:none;stroke:#0000ff;stroke-width:1.49440002;stroke-linecap:round;stroke-linejoin:round;stroke-miterlimit:10;stroke-dasharray:none;stroke-opacity:1"
               d="m 53.594971,87.553406 v 0" /><path
               id="path388"
               style="fill:none;stroke:#0000ff;stroke-width:1.49440002;stroke-linecap:round;stroke-linejoin:round;stroke-miterlimit:10;stroke-dasharray:none;stroke-opacity:1"
               d="m -8.455658,84.558105 v 0" /><path
               id="path390"
               style="fill:none;stroke:#0000ff;stroke-width:1.49440002;stroke-linecap:round;stroke-linejoin:round;stroke-miterlimit:10;stroke-dasharray:none;stroke-opacity:1"
               d="m 53.245544,-141.19873 v 0" /><path
               id="path392"
               style="fill:none;stroke:#0000ff;stroke-width:1.49440002;stroke-linecap:round;stroke-linejoin:round;stroke-miterlimit:10;stroke-dasharray:none;stroke-opacity:1"
               d="m 141.76102,-40.589905 v 0" /><path
               id="path394"
               style="fill:none;stroke:#0000ff;stroke-width:1.49440002;stroke-linecap:round;stroke-linejoin:round;stroke-miterlimit:10;stroke-dasharray:none;stroke-opacity:1"
               d="m 35.150146,-12.52594 v 0" /><path
               id="path396"
               style="fill:none;stroke:#0000ff;stroke-width:1.49440002;stroke-linecap:round;stroke-linejoin:round;stroke-miterlimit:10;stroke-dasharray:none;stroke-opacity:1"
               d="m 13.442993,128.19366 v 0" /><path
               id="path398"
               style="fill:none;stroke:#0000ff;stroke-width:1.49440002;stroke-linecap:round;stroke-linejoin:round;stroke-miterlimit:10;stroke-dasharray:none;stroke-opacity:1"
               d="m 44.085693,48.924255 v 0" /><path
               id="path400"
               style="fill:none;stroke:#0000ff;stroke-width:1.49440002;stroke-linecap:round;stroke-linejoin:round;stroke-miterlimit:10;stroke-dasharray:none;stroke-opacity:1"
               d="m 47.80426,-52.455139 v 0" /><path
               id="path402"
               style="fill:none;stroke:#0000ff;stroke-width:1.49440002;stroke-linecap:round;stroke-linejoin:round;stroke-miterlimit:10;stroke-dasharray:none;stroke-opacity:1"
               d="m 28.258514,58.425903 v 0" /><path
               id="path404"
               style="fill:none;stroke:#0000ff;stroke-width:1.49440002;stroke-linecap:round;stroke-linejoin:round;stroke-miterlimit:10;stroke-dasharray:none;stroke-opacity:1"
               d="m 25.641632,-38.796997 v 0" /><path
               id="path406"
               style="fill:none;stroke:#0000ff;stroke-width:1.49440002;stroke-linecap:round;stroke-linejoin:round;stroke-miterlimit:10;stroke-dasharray:none;stroke-opacity:1"
               d="m -33.818817,-7.4645996 v 0" /><path
               id="path408"
               style="fill:none;stroke:#0000ff;stroke-width:1.49440002;stroke-linecap:round;stroke-linejoin:round;stroke-miterlimit:10;stroke-dasharray:none;stroke-opacity:1"
               d="m 39.188385,-6.3980103 v 0" /><path
               id="path410"
               style="fill:none;stroke:#0000ff;stroke-width:1.49440002;stroke-linecap:round;stroke-linejoin:round;stroke-miterlimit:10;stroke-dasharray:none;stroke-opacity:1"
               d="m 27.522278,-247.40448 v 0" /><path
               id="path412"
               style="fill:none;stroke:#0000ff;stroke-width:1.49440002;stroke-linecap:round;stroke-linejoin:round;stroke-miterlimit:10;stroke-dasharray:none;stroke-opacity:1"
               d="m 5.7769775,-58.743286 v 0" /><path
               id="path414"
               style="fill:none;stroke:#0000ff;stroke-width:1.49440002;stroke-linecap:round;stroke-linejoin:round;stroke-miterlimit:10;stroke-dasharray:none;stroke-opacity:1"
               d="m -2.2499084,157.49817 v 0" /><path
               id="path416"
               style="fill:none;stroke:#0000ff;stroke-width:1.49440002;stroke-linecap:round;stroke-linejoin:round;stroke-miterlimit:10;stroke-dasharray:none;stroke-opacity:1"
               d="m 66.623688,108.98743 v 0" /><path
               id="path418"
               style="fill:none;stroke:#0000ff;stroke-width:1.49440002;stroke-linecap:round;stroke-linejoin:round;stroke-miterlimit:10;stroke-dasharray:none;stroke-opacity:1"
               d="m 149.15466,-30.819702 v 0" /><path
               id="path420"
               style="fill:none;stroke:#0000ff;stroke-width:1.49440002;stroke-linecap:round;stroke-linejoin:round;stroke-miterlimit:10;stroke-dasharray:none;stroke-opacity:1"
               d="m 59.81369,164.39514 v 0" /><path
               id="path422"
               style="fill:none;stroke:#0000ff;stroke-width:1.49440002;stroke-linecap:round;stroke-linejoin:round;stroke-miterlimit:10;stroke-dasharray:none;stroke-opacity:1"
               d="m 130.7457,139.43329 v 0" /><path
               id="path424"
               style="fill:none;stroke:#0000ff;stroke-width:1.49440002;stroke-linecap:round;stroke-linejoin:round;stroke-miterlimit:10;stroke-dasharray:none;stroke-opacity:1"
               d="m 82.725525,10.046387 v 0" /><path
               id="path426"
               style="fill:none;stroke:#0000ff;stroke-width:1.49440002;stroke-linecap:round;stroke-linejoin:round;stroke-miterlimit:10;stroke-dasharray:none;stroke-opacity:1"
               d="m 57.704163,113.21259 v 0" /><path
               id="path428"
               style="fill:none;stroke:#0000ff;stroke-width:1.49440002;stroke-linecap:round;stroke-linejoin:round;stroke-miterlimit:10;stroke-dasharray:none;stroke-opacity:1"
               d="m -43.651581,-137.28027 v 0" /><path
               id="path430"
               style="fill:none;stroke:#0000ff;stroke-width:1.49440002;stroke-linecap:round;stroke-linejoin:round;stroke-miterlimit:10;stroke-dasharray:none;stroke-opacity:1"
               d="m 39.875793,-27.67334 v 0" /><path
               id="path432"
               style="fill:none;stroke:#0000ff;stroke-width:1.49440002;stroke-linecap:round;stroke-linejoin:round;stroke-miterlimit:10;stroke-dasharray:none;stroke-opacity:1"
               d="m 20.966339,-4.0176392 v 0" /><path
               id="path434"
               style="fill:none;stroke:#0000ff;stroke-width:1.49440002;stroke-linecap:round;stroke-linejoin:round;stroke-miterlimit:10;stroke-dasharray:none;stroke-opacity:1"
               d="m 100.89722,-26.306152 v 0" /></g></g></g></g></g></svg>